INDEX VERSION 1.4+C:\Users\rlima\git\portal-anexo\portalanexo\.metadata\.plugins\org.eclipse.wst.jsdt.core\indexes
2065870524.index
2548904818.index
918273591.index
4210062983.index
259379707.index
2546289521.index
